[
  {
    "phone_number": "+573202452005",
    "name": "Carlos Andres Beltran Franco"
  },
  {
    "phone_number": "+573003315480",
    "name": "Milton Javier Miranda Polo"
  },
  {
    "phone_number": "+573145965211",
    "name": "Flower Burgos"
  },
  {
    "phone_number": "+573015262684",
    "name": "Jeisson Rodriguez"
  },
  {
    "phone_number": "+573132720720",
    "name": "Cristian Cedeno"
  }
]
